{
  "project_info": {
    "project_number": "698511575122",
    "firebase_url": "https://trigonometry-formulas-f1e50.firebaseio.com",
    "project_id": "trigonometry-formulas-f1e50",
    "storage_bucket": "trigonometry-formulas-f1e50.appspot.com"
  },
  "client": [
    {
      "client_info": {
        "mobilesdk_app_id": "1:698511575122:android:f573629f3df51317",
        "android_client_info": {
          "package_name": "com.ktmstudio.sanam.allformulasguide"
        }
      },
      "oauth_client": [
        {
          "client_id": "698511575122-a0nadrnme4lckn573mt4fond3g8i0hd6.apps.googleusercontent.com",
          "client_type": 1,
          "android_info": {
            "package_name": "com.ktmstudio.sanam.allformulasguide",
            "certificate_hash": "391592091a635a9c24d07c649f1853fa5ceb78e1"
          }
        },
        {
          "client_id": "698511575122-5s68jmg89h3b83r6k2cn2lnpp15en3ui.apps.googleusercontent.com",
          "client_type": 3
        }
      ],
      "api_key": [
        {
          "current_key": "AIzaSyCGkOQkmFtCptqDwPKbJmo8Nw_8GwtR5rc"
        }
      ],
      "services": {
        "analytics_service": {
          "status": 1
        },
        "appinvite_service": {
          "status": 2,
          "other_platform_oauth_client": [
            {
              "client_id": "698511575122-5s68jmg89h3b83r6k2cn2lnpp15en3ui.apps.googleusercontent.com",
              "client_type": 3
            },
            {
              "client_id": "698511575122-p2okd7c0d84m9i4aq0rljj63q7mnlqfh.apps.googleusercontent.com",
              "client_type": 2,
              "ios_info": {
                "bundle_id": "com.ktmstudio.TrigonometryFormulas",
                "app_store_id": "1275566773"
              }
            }
          ]
        },
        "ads_service": {
          "status": 2
        }
      }
    }
  ],
  "configuration_version": "1"
}